[
	{
		"type": "normalbike",
		"id": "bike0",
		"typeId": "normalbike1",
		"parkingId": "parking1",
		"name": "Asama 2020",
		"weight": 1.8,
		"licensePlate": "2020574",
		"manuafacturingDate": "20201112",
		"cost": 260000,
		"producer": "VIN"
	},
	{
		"type": "normalbike",
		"id": "bike1",
		"typeId": "normalbike1",
		"parkingId": "parking2",
		"name": "Asama 2022",
		"weight": 1.0,
		"licensePlate": "2010574",
		"manuafacturingDate": "20101112",
		"cost": 250000,
		"producer": "VINX"
	},
	{
		"type": "normalbike",
		"id": "bike2",
		"typeId": "normalbike2",
		"parkingId": "parking3",
		"name": "Asama 2021",
		"weight": 1.9,
		"licensePlate": "2020554",
		"manuafacturingDate": "20201202",
		"cost": 2600000,
		"producer": "VINY"
	}
]