[
	{
		"type": "normalbike",
		"id": "normalbike1",
		"name":"Xe dap don thuong",
		"so_yen":1,
		"so_ghe_sau":2,
		"tien_coc":400000,
		"muc_gia": 1
	},
	{
		"type": "normalbike",
		"id": "normalbike2",
		"name":"Xe dap doi thuong",
		"so_yen":2,
		"so_ghe_sau":1,
		"tien_coc":550000,
		"muc_gia": 1
	}
]